EESchema Schematic File Version 4
LIBS:power
LIBS:74xx
LIBS:Tarjeta-cache
EELAYER 26 0
EELAYER END
$Descr A4 11693 8268
encoding utf-8
Sheet 2 4
Title ""
Date "2018-08-31"
Rev ""
Comp "Juli Acero "
Comment1 ""
Comment2 ""
Comment3 ""
Comment4 ""
$EndDescr
$Comp
L power:GND #PWR?
U 1 1 5B8C9724
P 6200 2400
F 0 "#PWR?" H 6200 2150 50  0001 C CNN
F 1 "GND" H 6205 2227 50  0000 C CNN
F 2 "" H 6200 2400 50  0001 C CNN
F 3 "" H 6200 2400 50  0001 C CNN
	1    6200 2400
	1    0    0    -1  
$EndComp
Wire Wire Line
	6600 2650 6450 2650
$Comp
L power:+3.3V #PWR?
U 1 1 5B8CD257
P 8300 2800
F 0 "#PWR?" H 8300 2650 50  0001 C CNN
F 1 "+3.3V" H 8315 2973 50  0000 C CNN
F 2 "" H 8300 2800 50  0001 C CNN
F 3 "" H 8300 2800 50  0001 C CNN
	1    8300 2800
	1    0    0    -1  
$EndComp
Wire Wire Line
	8100 2800 8300 2800
Wire Wire Line
	8100 2650 8150 2650
Wire Wire Line
	8150 2650 8150 2200
Wire Wire Line
	8150 2200 6450 2200
Wire Wire Line
	6450 2200 6450 2300
Text GLabel 8300 2950 2    50   Input ~ 0
D+
Text GLabel 8300 3100 2    50   Input ~ 0
D-
Wire Wire Line
	8100 2950 8300 2950
Wire Wire Line
	8100 3100 8300 3100
$Comp
L omega-dock-new:OMEGA_2 U?
U 1 1 5B8C966B
P 7350 3700
F 0 "U?" H 7350 5037 60  0000 C CNN
F 1 "OMEGA_2" H 7350 4931 60  0000 C CNN
F 2 "" H 7350 4300 60  0001 C CNN
F 3 "" H 7350 4300 60  0001 C CNN
	1    7350 3700
	1    0    0    -1  
$EndComp
Text HLabel 8250 4600 2    50   Output ~ 0
JNSRT
Text HLabel 6250 3100 0    50   Output ~ 0
JTMS
Text HLabel 6250 3250 0    50   Output ~ 0
JTCK
Text HLabel 6250 3400 0    50   Output ~ 0
JTDI
Text HLabel 6250 3550 0    50   Output ~ 0
JTDO
Text HLabel 6200 4600 0    50   Output ~ 0
JTRST
Text HLabel 6200 4750 0    50   Output ~ 0
BOOT0
NoConn ~ 6600 4900
Text HLabel 8250 3250 2    50   Output ~ 0
G8_Rx
Text HLabel 8250 3400 2    50   Output ~ 0
G8_Tx
Text HLabel 8250 3550 2    50   Output ~ 0
RESET
Text HLabel 8250 4750 2    50   Output ~ 0
SCL
Text HLabel 8250 4900 2    50   Output ~ 0
SDA
Wire Wire Line
	8250 3250 8100 3250
Wire Wire Line
	8100 3400 8250 3400
Wire Wire Line
	8100 3550 8250 3550
Wire Wire Line
	8250 4750 8100 4750
Wire Wire Line
	8100 4900 8250 4900
Wire Wire Line
	6250 3100 6600 3100
Wire Wire Line
	6250 3250 6600 3250
Wire Wire Line
	6250 3400 6600 3400
Wire Wire Line
	6250 3550 6600 3550
Wire Wire Line
	6150 4450 6600 4450
$Comp
L Device:R R?
U 1 1 5B8CF903
P 5550 3350
F 0 "R?" H 5620 3396 50  0000 L CNN
F 1 "1k" H 5620 3305 50  0000 L CNN
F 2 "" V 5480 3350 50  0001 C CNN
F 3 "~" H 5550 3350 50  0001 C CNN
	1    5550 3350
	-1   0    0    1   
$EndComp
$Comp
L power:GND #PWR?
U 1 1 5B8CF911
P 5550 3700
F 0 "#PWR?" H 5550 3450 50  0001 C CNN
F 1 "GND" H 5555 3527 50  0000 C CNN
F 2 "" H 5550 3700 50  0001 C CNN
F 3 "" H 5550 3700 50  0001 C CNN
	1    5550 3700
	1    0    0    -1  
$EndComp
Wire Wire Line
	5550 3700 5550 3500
Wire Wire Line
	5550 3200 5550 3050
Wire Wire Line
	6200 2400 6200 2300
Wire Wire Line
	6200 2300 6450 2300
Connection ~ 6450 2300
Wire Wire Line
	6450 2300 6450 2650
Wire Wire Line
	6600 2800 5850 2800
Wire Wire Line
	5850 2800 5850 2750
Wire Wire Line
	5850 2750 5550 2750
$Comp
L Device:LED D?
U 1 1 5B8CF90A
P 5550 2900
F 0 "D?" V 5588 2783 50  0000 R CNN
F 1 "LED" V 5497 2783 50  0000 R CNN
F 2 "" H 5550 2900 50  0001 C CNN
F 3 "~" H 5550 2900 50  0001 C CNN
	1    5550 2900
	0    -1   -1   0   
$EndComp
Wire Wire Line
	8100 4600 8250 4600
Wire Wire Line
	6050 4000 6600 4000
Wire Wire Line
	6050 4150 6600 4150
Wire Wire Line
	6600 4300 6050 4300
Wire Wire Line
	6200 4600 6600 4600
Wire Wire Line
	6200 4750 6600 4750
Text GLabel 9000 5100 0    50   Input ~ 0
RESET
$Comp
L Device:R R?
U 1 1 5B906A89
P 9400 4800
F 0 "R?" H 9470 4846 50  0000 L CNN
F 1 "10k" H 9470 4755 50  0000 L CNN
F 2 "" V 9330 4800 50  0001 C CNN
F 3 "~" H 9400 4800 50  0001 C CNN
	1    9400 4800
	1    0    0    -1  
$EndComp
$Comp
L power:+3.3V #PWR?
U 1 1 5B906A90
P 9400 4450
F 0 "#PWR?" H 9400 4300 50  0001 C CNN
F 1 "+3.3V" H 9415 4623 50  0000 C CNN
F 2 "" H 9400 4450 50  0001 C CNN
F 3 "" H 9400 4450 50  0001 C CNN
	1    9400 4450
	1    0    0    -1  
$EndComp
$Comp
L Switch:SW_Push SW?
U 1 1 5B906A96
P 9750 5100
F 0 "SW?" H 9750 5385 50  0000 C CNN
F 1 "SW_Push" H 9750 5294 50  0000 C CNN
F 2 "" H 9750 5300 50  0001 C CNN
F 3 "" H 9750 5300 50  0001 C CNN
	1    9750 5100
	1    0    0    -1  
$EndComp
$Comp
L power:GND #PWR?
U 1 1 5B906A9D
P 10150 5300
F 0 "#PWR?" H 10150 5050 50  0001 C CNN
F 1 "GND" H 10155 5127 50  0000 C CNN
F 2 "" H 10150 5300 50  0001 C CNN
F 3 "" H 10150 5300 50  0001 C CNN
	1    10150 5300
	1    0    0    -1  
$EndComp
Wire Wire Line
	10150 5300 10150 5100
Wire Wire Line
	10150 5100 9950 5100
Wire Wire Line
	9550 5100 9400 5100
Wire Wire Line
	9400 4950 9400 5100
Connection ~ 9400 5100
Wire Wire Line
	9400 5100 9000 5100
Wire Wire Line
	9400 4650 9400 4450
$Comp
L Connector:USB_A J?
U 1 1 5B90F299
P 2000 2550
F 0 "J?" H 2055 3017 50  0000 C CNN
F 1 "USB_A" H 2055 2926 50  0000 C CNN
F 2 "" H 2150 2500 50  0001 C CNN
F 3 " ~" H 2150 2500 50  0001 C CNN
	1    2000 2550
	1    0    0    -1  
$EndComp
$Comp
L Power_Protection:USBLC6-2SC6 U?
U 1 1 5B90F2A0
P 3300 2500
F 0 "U?" V 2850 2850 50  0000 L CNN
F 1 "USBLC6-2SC6" V 2700 2700 50  0000 L CNN
F 2 "Package_TO_SOT_SMD:SOT-23-6" H 2550 2900 50  0001 C CNN
F 3 "http://www2.st.com/resource/en/datasheet/CD00050750.pdf" H 3500 2850 50  0001 C CNN
	1    3300 2500
	0    1    1    0   
$EndComp
$Comp
L Device:Polyfuse F?
U 1 1 5B90F2A7
P 2400 1950
F 0 "F?" V 2300 1950 50  0000 L CNN
F 1 "1.5A" V 2500 1950 50  0000 L CNN
F 2 "" H 2450 1750 50  0001 L CNN
F 3 "~" H 2400 1950 50  0001 C CNN
	1    2400 1950
	1    0    0    -1  
$EndComp
$Comp
L power:+5V #PWR?
U 1 1 5B90F2AE
P 2400 1700
F 0 "#PWR?" H 2400 1550 50  0001 C CNN
F 1 "+5V" H 2415 1873 50  0000 C CNN
F 2 "" H 2400 1700 50  0001 C CNN
F 3 "" H 2400 1700 50  0001 C CNN
	1    2400 1700
	1    0    0    -1  
$EndComp
Wire Wire Line
	2400 1700 2400 1800
Wire Wire Line
	2300 2350 2400 2350
Wire Wire Line
	2400 2350 2400 2100
Wire Wire Line
	2550 2550 2550 2000
Wire Wire Line
	2550 2000 2900 2000
Wire Wire Line
	2300 2550 2550 2550
Text GLabel 2850 1900 0    50   Input ~ 0
UD+
Wire Wire Line
	2850 1900 2900 1900
Wire Wire Line
	2900 1900 2900 2000
Connection ~ 2900 2000
Wire Wire Line
	2900 2000 3200 2000
Wire Wire Line
	2300 2650 2300 3150
Wire Wire Line
	2300 3150 2700 3150
Wire Wire Line
	3200 3150 3200 3000
$Comp
L power:GND #PWR?
U 1 1 5B90F2C2
P 2750 2650
F 0 "#PWR?" H 2750 2400 50  0001 C CNN
F 1 "GND" H 2755 2477 50  0000 C CNN
F 2 "" H 2750 2650 50  0001 C CNN
F 3 "" H 2750 2650 50  0001 C CNN
	1    2750 2650
	1    0    0    -1  
$EndComp
Wire Wire Line
	2750 2650 2750 2500
Wire Wire Line
	2750 2500 2800 2500
Text GLabel 2600 3050 0    50   Input ~ 0
UD-
Wire Wire Line
	2600 3050 2700 3050
Wire Wire Line
	2700 3050 2700 3150
Connection ~ 2700 3150
Wire Wire Line
	2700 3150 3200 3150
$Comp
L power:+3.3V #PWR?
U 1 1 5B90F2CF
P 3900 2450
F 0 "#PWR?" H 3900 2300 50  0001 C CNN
F 1 "+3.3V" H 3915 2623 50  0000 C CNN
F 2 "" H 3900 2450 50  0001 C CNN
F 3 "" H 3900 2450 50  0001 C CNN
	1    3900 2450
	1    0    0    -1  
$EndComp
Wire Wire Line
	3800 2500 3900 2500
Wire Wire Line
	3900 2500 3900 2450
Text GLabel 3350 1800 0    50   Input ~ 0
D+
Text GLabel 3250 3350 0    50   Input ~ 0
D-
Wire Wire Line
	3350 1800 3400 1800
Wire Wire Line
	3400 1800 3400 2000
Wire Wire Line
	3400 3350 3400 3000
Wire Wire Line
	3400 3350 3250 3350
Text HLabel 6050 4000 0    50   Output ~ 0
SPI_MISO
Text HLabel 6050 4150 0    50   Output ~ 0
SPI_MOSI
Text HLabel 6050 4300 0    50   Output ~ 0
SPI_CLK
Text HLabel 6150 4450 0    50   Output ~ 0
SPI_CS1
$EndSCHEMATC
