EESchema Schematic File Version 4
LIBS:power
LIBS:74xx
LIBS:Tarjeta-cache
EELAYER 26 0
EELAYER END
$Descr User 17000 12969
encoding utf-8
Sheet 3 4
Title ""
Date "2018-08-31"
Rev ""
Comp "Juli Acero "
Comment1 ""
Comment2 ""
Comment3 ""
Comment4 ""
$EndDescr
Text GLabel 6550 1350 0    50   Input ~ 0
VDD
Wire Wire Line
	6550 2150 6550 1750
Wire Wire Line
	6550 1750 6650 1750
Wire Wire Line
	7650 1750 7650 2150
Wire Wire Line
	7550 2150 7550 1750
Connection ~ 7550 1750
Wire Wire Line
	7550 1750 7650 1750
Wire Wire Line
	7450 2150 7450 1750
Connection ~ 7450 1750
Wire Wire Line
	7450 1750 7550 1750
Wire Wire Line
	7350 2150 7350 1750
Connection ~ 7350 1750
Wire Wire Line
	7350 1750 7450 1750
Connection ~ 7250 1750
Wire Wire Line
	7250 1750 7350 1750
Wire Wire Line
	7250 1750 7250 2150
Wire Wire Line
	7150 2150 7150 1750
Connection ~ 7150 1750
Wire Wire Line
	7150 1750 7250 1750
Wire Wire Line
	7050 2150 7050 1750
Connection ~ 7050 1750
Wire Wire Line
	7050 1750 7150 1750
Wire Wire Line
	6950 2150 6950 1750
Connection ~ 6950 1750
Wire Wire Line
	6950 1750 7050 1750
Wire Wire Line
	6850 2150 6850 1750
Connection ~ 6850 1750
Wire Wire Line
	6850 1750 6950 1750
Connection ~ 6750 1750
Wire Wire Line
	6750 1750 6850 1750
Wire Wire Line
	6750 1750 6750 2150
Wire Wire Line
	6650 2150 6650 1750
Connection ~ 6650 1750
Wire Wire Line
	6650 1750 6750 1750
Wire Wire Line
	6550 1350 7050 1350
Wire Wire Line
	7050 1350 7050 1750
Wire Wire Line
	5550 2450 5950 2450
Wire Wire Line
	5150 3850 5150 4000
$Comp
L Device:C C?
U 1 1 5B88EA6B
P 4750 3850
F 0 "C?" V 4498 3850 50  0000 C CNN
F 1 "22pF" V 4589 3850 50  0000 C CNN
F 2 "" H 4788 3700 50  0001 C CNN
F 3 "~" H 4750 3850 50  0001 C CNN
	1    4750 3850
	0    -1   1    0   
$EndComp
$Comp
L Device:C C?
U 1 1 5B88EAFC
P 4750 4350
F 0 "C?" V 4498 4350 50  0000 C CNN
F 1 "22pF" V 4589 4350 50  0000 C CNN
F 2 "" H 4788 4200 50  0001 C CNN
F 3 "~" H 4750 4350 50  0001 C CNN
	1    4750 4350
	0    -1   1    0   
$EndComp
$Comp
L power:GND #PWR?
U 1 1 5B88EBE6
P 4250 4100
F 0 "#PWR?" H 4250 3850 50  0001 C CNN
F 1 "GND" V 4255 3972 50  0000 R CNN
F 2 "" H 4250 4100 50  0001 C CNN
F 3 "" H 4250 4100 50  0001 C CNN
	1    4250 4100
	0    1    -1   0   
$EndComp
Wire Wire Line
	4900 3850 5150 3850
Wire Wire Line
	4900 4350 5150 4350
Wire Wire Line
	5150 4350 5150 4300
Wire Wire Line
	4600 3850 4300 3850
Wire Wire Line
	4600 4350 4300 4350
Wire Wire Line
	5950 3850 5150 3850
Connection ~ 5150 3850
Wire Wire Line
	5950 3950 5300 3950
Wire Wire Line
	5300 3950 5300 4350
Wire Wire Line
	5300 4350 5150 4350
Connection ~ 5150 4350
$Comp
L Device:C C?
U 1 1 5B897627
P 5350 3150
F 0 "C?" H 5465 3196 50  0000 L CNN
F 1 "2.2uF" H 5465 3105 50  0000 L CNN
F 2 "" H 5388 3000 50  0001 C CNN
F 3 "~" H 5350 3150 50  0001 C CNN
	1    5350 3150
	1    0    0    -1  
$EndComp
$Comp
L Device:C C?
U 1 1 5B89767E
P 5650 3200
F 0 "C?" H 5765 3246 50  0000 L CNN
F 1 "2.2uF" H 5765 3155 50  0000 L CNN
F 2 "" H 5688 3050 50  0001 C CNN
F 3 "~" H 5650 3200 50  0001 C CNN
	1    5650 3200
	1    0    0    -1  
$EndComp
$Comp
L power:GND #PWR?
U 1 1 5B898386
P 5500 3400
F 0 "#PWR?" H 5500 3150 50  0001 C CNN
F 1 "GND" H 5505 3227 50  0000 C CNN
F 2 "" H 5500 3400 50  0001 C CNN
F 3 "" H 5500 3400 50  0001 C CNN
	1    5500 3400
	1    0    0    -1  
$EndComp
Wire Wire Line
	5350 3000 5350 2950
Wire Wire Line
	5350 2950 5950 2950
Wire Wire Line
	5950 3050 5650 3050
Wire Wire Line
	5350 3300 5350 3400
Wire Wire Line
	5350 3400 5500 3400
Wire Wire Line
	5650 3350 5650 3400
Wire Wire Line
	5650 3400 5500 3400
Connection ~ 5500 3400
$Comp
L MCU_ST_STM32F4:STM32F446ZETx U?
U 1 1 5B88A621
P 7150 5750
F 0 "U?" H 8150 2200 50  0000 C CNN
F 1 "STM32F446ZETx" H 8300 2100 50  0000 C CNN
F 2 "Package_QFP:LQFP-144_20x20mm_P0.5mm" H 6150 2350 50  0001 R CNN
F 3 "http://www.st.com/st-web-ui/static/active/en/resource/technical/document/datasheet/DM00141306.pdf" H 7150 5750 50  0001 C CNN
	1    7150 5750
	1    0    0    -1  
$EndComp
Wire Wire Line
	7650 9350 7650 9450
Wire Wire Line
	6750 9450 6750 9350
Wire Wire Line
	6850 9350 6850 9450
Connection ~ 6850 9450
Wire Wire Line
	6850 9450 6750 9450
Wire Wire Line
	6950 9350 6950 9450
Connection ~ 6950 9450
Wire Wire Line
	6950 9450 6850 9450
Wire Wire Line
	7050 9350 7050 9450
Connection ~ 7050 9450
Wire Wire Line
	7050 9450 6950 9450
Wire Wire Line
	7150 9350 7150 9450
Connection ~ 7150 9450
Wire Wire Line
	7150 9450 7050 9450
Wire Wire Line
	7250 9350 7250 9450
Connection ~ 7250 9450
Wire Wire Line
	7250 9450 7150 9450
Wire Wire Line
	7350 9350 7350 9450
Connection ~ 7350 9450
Wire Wire Line
	7350 9450 7250 9450
Wire Wire Line
	7450 9350 7450 9450
Connection ~ 7450 9450
Wire Wire Line
	7450 9450 7350 9450
Wire Wire Line
	7550 9350 7550 9450
Wire Wire Line
	7550 9450 7450 9450
$Comp
L power:GND #PWR?
U 1 1 5B8AFB05
P 7150 9600
F 0 "#PWR?" H 7150 9350 50  0001 C CNN
F 1 "GND" H 7155 9427 50  0000 C CNN
F 2 "" H 7150 9600 50  0001 C CNN
F 3 "" H 7150 9600 50  0001 C CNN
	1    7150 9600
	1    0    0    -1  
$EndComp
Wire Wire Line
	7150 9450 7150 9600
Wire Wire Line
	5950 7750 5300 7750
Wire Wire Line
	5950 7850 5300 7850
Wire Wire Line
	5950 7950 5300 7950
Wire Wire Line
	5950 8050 5300 8050
Wire Wire Line
	5950 8150 5300 8150
Wire Wire Line
	5950 8250 5300 8250
Wire Wire Line
	5950 8350 5300 8350
Wire Wire Line
	5950 8450 5300 8450
Wire Wire Line
	5950 8550 5300 8550
Wire Wire Line
	5950 8650 5300 8650
Wire Wire Line
	5950 8750 5300 8750
Wire Wire Line
	5950 8850 5300 8850
Wire Wire Line
	5950 8950 5300 8950
Wire Wire Line
	5950 9050 5300 9050
Entry Wire Line
	5200 7850 5300 7750
Entry Wire Line
	5200 7950 5300 7850
Entry Wire Line
	5200 8050 5300 7950
Entry Wire Line
	5200 8150 5300 8050
Entry Wire Line
	5200 8250 5300 8150
Entry Wire Line
	5200 8350 5300 8250
Entry Wire Line
	5200 8450 5300 8350
Entry Wire Line
	5200 8550 5300 8450
Entry Wire Line
	5200 8650 5300 8550
Entry Wire Line
	5200 8750 5300 8650
Entry Wire Line
	5200 8850 5300 8750
Entry Wire Line
	5200 8950 5300 8850
Entry Wire Line
	5200 9050 5300 8950
Entry Wire Line
	5200 9150 5300 9050
Wire Bus Line
	5200 8250 4950 8250
Wire Bus Line
	5200 9150 4950 9150
Text HLabel 4950 8250 0    50   Input ~ 0
FCM_A[24:16]
Text HLabel 4950 9150 0    50   Input ~ 0
FCM_D[15:0]
Text HLabel 5600 7550 0    50   Input ~ 0
FCM_NBL0
Text HLabel 5600 7650 0    50   Input ~ 0
FCM_NBL1
Wire Wire Line
	5600 7550 5950 7550
Wire Wire Line
	5600 7650 5950 7650
Text HLabel 5550 2450 0    50   Input ~ 0
JNRST
Text HLabel 8450 7850 2    50   Input ~ 0
FCM_CLK
Text HLabel 8450 7950 2    50   Input ~ 0
FCM_NOE
Text HLabel 8450 8050 2    50   Input ~ 0
FCM_NWE
Text HLabel 8450 8150 2    50   Input ~ 0
FCM_NWAIT
Text HLabel 8450 8250 2    50   Input ~ 0
FCM_NE1
$Comp
L power:GND #PWR?
U 1 1 5B8EB71F
P 9500 7250
F 0 "#PWR?" H 9500 7000 50  0001 C CNN
F 1 "GND" V 9505 7122 50  0000 R CNN
F 2 "" H 9500 7250 50  0001 C CNN
F 3 "" H 9500 7250 50  0001 C CNN
	1    9500 7250
	0    -1   -1   0   
$EndComp
Wire Wire Line
	8350 7350 9000 7350
Wire Wire Line
	9000 7350 9000 7450
$Comp
L Device:Crystal_GND2 Y?
U 1 1 5B8EE7A4
P 9300 7250
F 0 "Y?" V 9346 7381 50  0000 L CNN
F 1 "Crystal_GND2" V 9255 7381 50  0000 L CNN
F 2 "" H 9300 7250 50  0001 C CNN
F 3 "~" H 9300 7250 50  0001 C CNN
	1    9300 7250
	0    -1   -1   0   
$EndComp
Wire Wire Line
	8350 7250 9050 7250
Wire Wire Line
	9050 7250 9050 7100
Wire Wire Line
	9050 7100 9300 7100
Wire Wire Line
	9300 7400 9300 7450
Wire Wire Line
	9300 7450 9000 7450
Entry Wire Line
	8800 8650 8900 8550
Entry Wire Line
	8800 8750 8900 8650
Entry Wire Line
	8800 8850 8900 8750
Wire Wire Line
	8350 7850 8450 7850
Wire Wire Line
	8450 7950 8350 7950
Wire Wire Line
	8350 8050 8450 8050
Wire Wire Line
	8350 8150 8450 8150
Wire Wire Line
	8350 8250 8450 8250
Wire Wire Line
	8350 8650 8800 8650
Wire Wire Line
	8350 8750 8800 8750
Wire Wire Line
	8350 8850 8800 8850
Text Label 8700 8650 2    50   ~ 0
FCM_A16
Text Label 8700 8750 2    50   ~ 0
FCM_A17
Text Label 8700 8850 2    50   ~ 0
FCM_A18
Wire Bus Line
	8900 8800 9250 8800
Text HLabel 9250 8800 2    50   Input ~ 0
FCM_A[24:16]
Wire Wire Line
	8350 7650 9950 7650
Wire Wire Line
	8350 8350 9950 8350
Wire Wire Line
	8350 8450 9950 8450
Wire Wire Line
	8350 8950 9950 8950
Wire Wire Line
	8350 9050 9950 9050
Text Label 9850 7650 2    50   ~ 0
FCM_D1
Text Label 9850 8350 2    50   ~ 0
FCMD13
Text Label 9850 8450 2    50   ~ 0
FCM_D14
Text Label 9850 8550 2    50   ~ 0
FCM_D15
Text Label 9850 8950 2    50   ~ 0
FCM_D0
Entry Wire Line
	9950 7650 10050 7550
Entry Wire Line
	9950 8350 10050 8250
Entry Wire Line
	9950 8450 10050 8350
Entry Wire Line
	9950 8550 10050 8450
Entry Wire Line
	9950 8950 10050 8850
Entry Wire Line
	9950 9050 10050 8950
Wire Bus Line
	10050 9000 10400 9000
Text HLabel 10400 9000 2    50   Input ~ 0
FCM_D[15:0]
Wire Wire Line
	8950 1650 8800 1650
Wire Wire Line
	8950 1550 8950 1650
Wire Wire Line
	8800 1650 8800 1700
Connection ~ 8800 1650
Wire Wire Line
	8700 1650 8800 1650
Wire Wire Line
	8700 1550 8700 1650
$Comp
L power:GND #PWR?
U 1 1 5B947F32
P 8800 1700
F 0 "#PWR?" H 8800 1450 50  0001 C CNN
F 1 "GND" H 8805 1527 50  0000 C CNN
F 2 "" H 8800 1700 50  0001 C CNN
F 3 "" H 8800 1700 50  0001 C CNN
	1    8800 1700
	1    0    0    -1  
$EndComp
Wire Wire Line
	8700 1200 8700 1250
Wire Wire Line
	8950 1200 8700 1200
Wire Wire Line
	8950 1250 8950 1200
$Comp
L Device:C C?
U 1 1 5B947F3D
P 8950 1400
F 0 "C?" H 9150 1450 50  0000 R CNN
F 1 "100nF" H 9300 1350 50  0000 R CNN
F 2 "" H 8988 1250 50  0001 C CNN
F 3 "~" H 8950 1400 50  0001 C CNN
	1    8950 1400
	1    0    0    1   
$EndComp
$Comp
L Device:C C?
U 1 1 5B947F44
P 8700 1400
F 0 "C?" H 8815 1446 50  0000 L CNN
F 1 "1uF" H 8815 1355 50  0000 L CNN
F 2 "" H 8738 1250 50  0001 C CNN
F 3 "~" H 8700 1400 50  0001 C CNN
	1    8700 1400
	-1   0    0    1   
$EndComp
Text GLabel 8000 1200 0    50   Input ~ 0
VDD
Text HLabel 8450 3750 2    50   Input ~ 0
JTMS
Text HLabel 8450 3850 2    50   Input ~ 0
JTCK
Text HLabel 8450 3950 2    50   Input ~ 0
JTDI
Text HLabel 8450 4550 2    50   Input ~ 0
JTRST
Text HLabel 8450 4850 2    50   Input ~ 0
I2C1_SDA
Wire Wire Line
	8450 3750 8350 3750
Wire Wire Line
	8350 3850 8450 3850
Wire Wire Line
	8350 3950 8450 3950
Wire Wire Line
	8350 4850 8450 4850
Wire Wire Line
	5950 5450 5550 5450
Entry Wire Line
	5450 5550 5550 5450
Wire Bus Line
	5450 5650 5200 5650
Text HLabel 5200 5650 0    50   Input ~ 0
FCM_A[24:16]
Text GLabel 5900 3450 0    50   Input ~ 0
VDD
Wire Wire Line
	8350 4550 8450 4550
Wire Wire Line
	5950 3150 5950 3450
Wire Wire Line
	5950 3450 5900 3450
Text HLabel 8350 4450 2    50   Input ~ 0
JTDO
Text GLabel 8350 2450 2    50   Input ~ 0
SEN1
Text GLabel 8350 2550 2    50   Input ~ 0
SEN2
Text GLabel 8350 2650 2    50   Input ~ 0
SEN3
Text GLabel 8350 2750 2    50   Input ~ 0
SEN4
Text GLabel 8350 2850 2    50   Input ~ 0
SEN5
Text GLabel 8350 2950 2    50   Input ~ 0
SEN6
Text GLabel 8350 3050 2    50   Input ~ 0
SEN7
Text GLabel 8350 3150 2    50   Input ~ 0
SEN8
Text GLabel 8350 3250 2    50   Input ~ 0
SRV1
Text GLabel 8350 3350 2    50   Input ~ 0
SRV2
Text GLabel 8350 3450 2    50   Input ~ 0
SRV3
Text GLabel 8350 3550 2    50   Input ~ 0
SRV4
Text HLabel 8350 4350 2    50   Input ~ 0
BOOT1
Text HLabel 8350 4750 2    50   Input ~ 0
I2C1_SCL
Text GLabel 8350 5150 2    50   Input ~ 0
DIR_MO
Text GLabel 8350 5250 2    50   Input ~ 0
SP_MO
Text GLabel 8350 5550 2    50   Input ~ 0
DIR_M1
Text GLabel 8350 5650 2    50   Input ~ 0
SP_M1
Text GLabel 8350 5850 2    50   Input ~ 0
CM1C
Text GLabel 8350 5950 2    50   Input ~ 0
CM1A
Text GLabel 8350 6050 2    50   Input ~ 0
CM1B
Text GLabel 8350 6150 2    50   Input ~ 0
CM1D
Text GLabel 8350 6250 2    50   Input ~ 0
CM2C
Text GLabel 8350 6350 2    50   Input ~ 0
CM2A
Text GLabel 8350 6450 2    50   Input ~ 0
CM2B
Text GLabel 8350 6550 2    50   Input ~ 0
CM2D
Text GLabel 8350 6650 2    50   Input ~ 0
TRIGG_3V3
Text GLabel 8350 6750 2    50   Input ~ 0
ECHO
Text GLabel 8350 6850 2    50   Input ~ 0
SAM_Tx
Text GLabel 8350 6950 2    50   Input ~ 0
SAM_Rx
$Comp
L Device:LED D?
U 1 1 5B92CFFF
P 9200 7750
F 0 "D?" H 9191 7966 50  0000 C CNN
F 1 "LED" H 9191 7875 50  0000 C CNN
F 2 "" H 9200 7750 50  0001 C CNN
F 3 "~" H 9200 7750 50  0001 C CNN
	1    9200 7750
	1    0    0    -1  
$EndComp
$Comp
L Device:R R?
U 1 1 5B92D0B7
P 9500 7750
F 0 "R?" V 9293 7750 50  0000 C CNN
F 1 "1k" V 9384 7750 50  0000 C CNN
F 2 "" V 9430 7750 50  0001 C CNN
F 3 "~" H 9500 7750 50  0001 C CNN
	1    9500 7750
	0    1    1    0   
$EndComp
$Comp
L power:GND #PWR?
U 1 1 5B92D14F
P 9700 7800
F 0 "#PWR?" H 9700 7550 50  0001 C CNN
F 1 "GND" H 9705 7627 50  0000 C CNN
F 2 "" H 9700 7800 50  0001 C CNN
F 3 "" H 9700 7800 50  0001 C CNN
	1    9700 7800
	1    0    0    -1  
$EndComp
Wire Wire Line
	9700 7800 9700 7750
Wire Wire Line
	9700 7750 9650 7750
Wire Wire Line
	9050 7750 8350 7750
$Comp
L Device:Crystal_GND2 Y?
U 1 1 5B935A1F
P 5150 4150
F 0 "Y?" V 5104 4281 50  0000 L CNN
F 1 "12Mhz" V 5195 4281 50  0000 L CNN
F 2 "" H 5150 4150 50  0001 C CNN
F 3 "~" H 5150 4150 50  0001 C CNN
	1    5150 4150
	0    1    1    0   
$EndComp
Wire Wire Line
	4300 3850 4300 4100
Wire Wire Line
	4250 4100 4300 4100
Connection ~ 4300 4100
Wire Wire Line
	4300 4100 4300 4150
Wire Wire Line
	4950 4150 4300 4150
Connection ~ 4300 4150
Wire Wire Line
	4300 4150 4300 4350
Text HLabel 5950 2750 0    50   Input ~ 0
BOOT0
$Comp
L Device:L L?
U 1 1 5B941A2F
P 7650 9600
F 0 "L?" H 7703 9646 50  0000 L CNN
F 1 "L" H 7703 9555 50  0000 L CNN
F 2 "" H 7650 9600 50  0001 C CNN
F 3 "~" H 7650 9600 50  0001 C CNN
	1    7650 9600
	1    0    0    -1  
$EndComp
$Comp
L power:GND #PWR?
U 1 1 5B941A8A
P 7650 9750
F 0 "#PWR?" H 7650 9500 50  0001 C CNN
F 1 "GND" H 7655 9577 50  0000 C CNN
F 2 "" H 7650 9750 50  0001 C CNN
F 3 "" H 7650 9750 50  0001 C CNN
	1    7650 9750
	1    0    0    -1  
$EndComp
$Comp
L power:+3.3V #PWR?
U 1 1 5B941B0F
P 6100 10050
F 0 "#PWR?" H 6100 9900 50  0001 C CNN
F 1 "+3.3V" H 6115 10223 50  0000 C CNN
F 2 "" H 6100 10050 50  0001 C CNN
F 3 "" H 6100 10050 50  0001 C CNN
	1    6100 10050
	1    0    0    -1  
$EndComp
$Comp
L Device:C C?
U 1 1 5B941B6A
P 5150 10350
F 0 "C?" H 5265 10396 50  0000 L CNN
F 1 "0.1uF" H 5265 10305 50  0000 L CNN
F 2 "" H 5188 10200 50  0001 C CNN
F 3 "~" H 5150 10350 50  0001 C CNN
	1    5150 10350
	1    0    0    -1  
$EndComp
$Comp
L Device:C C?
U 1 1 5B941C3D
P 5500 10350
F 0 "C?" H 5615 10396 50  0000 L CNN
F 1 "0.1uF" H 5615 10305 50  0000 L CNN
F 2 "" H 5538 10200 50  0001 C CNN
F 3 "~" H 5500 10350 50  0001 C CNN
	1    5500 10350
	1    0    0    -1  
$EndComp
$Comp
L Device:C C?
U 1 1 5B946612
P 4450 10350
F 0 "C?" H 4565 10396 50  0000 L CNN
F 1 "0.1uF" H 4565 10305 50  0000 L CNN
F 2 "" H 4488 10200 50  0001 C CNN
F 3 "~" H 4450 10350 50  0001 C CNN
	1    4450 10350
	1    0    0    -1  
$EndComp
$Comp
L Device:C C?
U 1 1 5B946619
P 4800 10350
F 0 "C?" H 4915 10396 50  0000 L CNN
F 1 "0.1uF" H 4915 10305 50  0000 L CNN
F 2 "" H 4838 10200 50  0001 C CNN
F 3 "~" H 4800 10350 50  0001 C CNN
	1    4800 10350
	1    0    0    -1  
$EndComp
$Comp
L Device:C C?
U 1 1 5B94AE3F
P 5800 10350
F 0 "C?" H 5915 10396 50  0000 L CNN
F 1 "0.1uF" H 5915 10305 50  0000 L CNN
F 2 "" H 5838 10200 50  0001 C CNN
F 3 "~" H 5800 10350 50  0001 C CNN
	1    5800 10350
	1    0    0    -1  
$EndComp
$Comp
L Device:C C?
U 1 1 5B94AE46
P 6150 10350
F 0 "C?" H 6265 10396 50  0000 L CNN
F 1 "0.1uF" H 6265 10305 50  0000 L CNN
F 2 "" H 6188 10200 50  0001 C CNN
F 3 "~" H 6150 10350 50  0001 C CNN
	1    6150 10350
	1    0    0    -1  
$EndComp
$Comp
L Device:C C?
U 1 1 5B94F688
P 6500 10350
F 0 "C?" H 6615 10396 50  0000 L CNN
F 1 "0.1uF" H 6615 10305 50  0000 L CNN
F 2 "" H 6538 10200 50  0001 C CNN
F 3 "~" H 6500 10350 50  0001 C CNN
	1    6500 10350
	1    0    0    -1  
$EndComp
$Comp
L Device:C C?
U 1 1 5B94F68F
P 6850 10350
F 0 "C?" H 6965 10396 50  0000 L CNN
F 1 "0.1uF" H 6965 10305 50  0000 L CNN
F 2 "" H 6888 10200 50  0001 C CNN
F 3 "~" H 6850 10350 50  0001 C CNN
	1    6850 10350
	1    0    0    -1  
$EndComp
$Comp
L Device:C C?
U 1 1 5B95400D
P 7150 10350
F 0 "C?" H 7265 10396 50  0000 L CNN
F 1 "0.1uF" H 7265 10305 50  0000 L CNN
F 2 "" H 7188 10200 50  0001 C CNN
F 3 "~" H 7150 10350 50  0001 C CNN
	1    7150 10350
	1    0    0    -1  
$EndComp
$Comp
L Device:C C?
U 1 1 5B954014
P 7500 10350
F 0 "C?" H 7615 10396 50  0000 L CNN
F 1 "0.1uF" H 7615 10305 50  0000 L CNN
F 2 "" H 7538 10200 50  0001 C CNN
F 3 "~" H 7500 10350 50  0001 C CNN
	1    7500 10350
	1    0    0    -1  
$EndComp
$Comp
L Device:C C?
U 1 1 5B9588AE
P 7800 10350
F 0 "C?" H 7915 10396 50  0000 L CNN
F 1 "0.1uF" H 7915 10305 50  0000 L CNN
F 2 "" H 7838 10200 50  0001 C CNN
F 3 "~" H 7800 10350 50  0001 C CNN
	1    7800 10350
	1    0    0    -1  
$EndComp
$Comp
L Device:C C?
U 1 1 5B9588B5
P 8150 10350
F 0 "C?" H 8265 10396 50  0000 L CNN
F 1 "4.7uF" H 8265 10305 50  0000 L CNN
F 2 "" H 8188 10200 50  0001 C CNN
F 3 "~" H 8150 10350 50  0001 C CNN
	1    8150 10350
	1    0    0    -1  
$EndComp
$Comp
L Device:C C?
U 1 1 5B95D223
P 4150 10350
F 0 "C?" H 4265 10396 50  0000 L CNN
F 1 "0.1uF" H 4265 10305 50  0000 L CNN
F 2 "" H 4188 10200 50  0001 C CNN
F 3 "~" H 4150 10350 50  0001 C CNN
	1    4150 10350
	1    0    0    -1  
$EndComp
$Comp
L power:GND #PWR?
U 1 1 5B95DE19
P 6150 10700
F 0 "#PWR?" H 6150 10450 50  0001 C CNN
F 1 "GND" H 6155 10527 50  0000 C CNN
F 2 "" H 6150 10700 50  0001 C CNN
F 3 "" H 6150 10700 50  0001 C CNN
	1    6150 10700
	1    0    0    -1  
$EndComp
Wire Wire Line
	4150 10200 4450 10200
Connection ~ 4450 10200
Wire Wire Line
	4450 10200 4800 10200
Connection ~ 4800 10200
Wire Wire Line
	4800 10200 5150 10200
Connection ~ 5150 10200
Wire Wire Line
	5150 10200 5500 10200
Connection ~ 5500 10200
Wire Wire Line
	5500 10200 5800 10200
Wire Wire Line
	5800 10200 6100 10200
Connection ~ 6150 10200
Wire Wire Line
	6150 10200 6500 10200
Wire Wire Line
	6500 10200 6850 10200
Connection ~ 6850 10200
Wire Wire Line
	6850 10200 7150 10200
Connection ~ 7150 10200
Wire Wire Line
	7150 10200 7500 10200
Connection ~ 7500 10200
Wire Wire Line
	7500 10200 7800 10200
Connection ~ 7800 10200
Wire Wire Line
	7800 10200 8150 10200
Wire Wire Line
	8150 10500 7800 10500
Connection ~ 4450 10500
Wire Wire Line
	4450 10500 4150 10500
Connection ~ 4800 10500
Wire Wire Line
	4800 10500 4450 10500
Connection ~ 5150 10500
Wire Wire Line
	5150 10500 4800 10500
Connection ~ 5500 10500
Wire Wire Line
	5500 10500 5150 10500
Connection ~ 5800 10500
Wire Wire Line
	5800 10500 5500 10500
Connection ~ 6150 10500
Wire Wire Line
	6150 10500 5800 10500
Connection ~ 6850 10500
Connection ~ 7150 10500
Wire Wire Line
	7150 10500 6850 10500
Connection ~ 7500 10500
Wire Wire Line
	7500 10500 7150 10500
Connection ~ 7800 10500
Wire Wire Line
	7800 10500 7500 10500
Wire Wire Line
	6150 10700 6150 10500
Wire Wire Line
	6100 10050 6100 10200
Wire Wire Line
	6100 10200 6150 10200
Connection ~ 6100 10200
$Comp
L Connector:Conn_01x03_Male J?
U 1 1 5B93DD0F
P 1350 11200
F 0 "J?" H 1650 11000 50  0000 R CNN
F 1 "Conn_01x03_Male" H 1700 11350 50  0000 R CNN
F 2 "" H 1350 11200 50  0001 C CNN
F 3 "~" H 1350 11200 50  0001 C CNN
	1    1350 11200
	-1   0    0    1   
$EndComp
$Comp
L Connector:Conn_01x03_Male J?
U 1 1 5B93DE96
P 1950 11200
F 0 "J?" H 2250 11000 50  0000 R CNN
F 1 "Conn_01x03_Male" H 2300 11450 50  0000 R CNN
F 2 "" H 1950 11200 50  0001 C CNN
F 3 "~" H 1950 11200 50  0001 C CNN
	1    1950 11200
	-1   0    0    1   
$EndComp
$Comp
L Connector:Conn_01x03_Male J?
U 1 1 5B93DEEA
P 2650 11200
F 0 "J?" H 2950 11000 50  0000 R CNN
F 1 "Conn_01x03_Male" H 3050 11350 50  0000 R CNN
F 2 "" H 2650 11200 50  0001 C CNN
F 3 "~" H 2650 11200 50  0001 C CNN
	1    2650 11200
	-1   0    0    1   
$EndComp
$Comp
L Connector:Conn_01x03_Male J?
U 1 1 5B94D692
P 3250 11200
F 0 "J?" H 3550 11000 50  0000 R CNN
F 1 "Conn_01x03_Male" H 3650 11450 50  0000 R CNN
F 2 "" H 3250 11200 50  0001 C CNN
F 3 "~" H 3250 11200 50  0001 C CNN
	1    3250 11200
	-1   0    0    1   
$EndComp
$Comp
L Connector:Conn_01x03_Male J?
U 1 1 5B94D699
P 3850 11200
F 0 "J?" H 4150 11000 50  0000 R CNN
F 1 "Conn_01x03_Male" H 4200 11350 50  0000 R CNN
F 2 "" H 3850 11200 50  0001 C CNN
F 3 "~" H 3850 11200 50  0001 C CNN
	1    3850 11200
	-1   0    0    1   
$EndComp
$Comp
L Connector:Conn_01x03_Male J?
U 1 1 5B94D6A0
P 4550 11200
F 0 "J?" H 4900 11000 50  0000 R CNN
F 1 "Conn_01x03_Male" H 4950 11450 50  0000 R CNN
F 2 "" H 4550 11200 50  0001 C CNN
F 3 "~" H 4550 11200 50  0001 C CNN
	1    4550 11200
	-1   0    0    1   
$EndComp
$Comp
L Connector:Conn_01x03_Male J?
U 1 1 5B954D57
P 5250 11200
F 0 "J?" H 5500 11000 50  0000 R CNN
F 1 "Conn_01x03_Male" H 5650 11400 50  0000 R CNN
F 2 "" H 5250 11200 50  0001 C CNN
F 3 "~" H 5250 11200 50  0001 C CNN
	1    5250 11200
	-1   0    0    1   
$EndComp
$Comp
L power:+5V #PWR?
U 1 1 5B95508F
P 1650 10300
F 0 "#PWR?" H 1650 10150 50  0001 C CNN
F 1 "+5V" H 1665 10473 50  0000 C CNN
F 2 "" H 1650 10300 50  0001 C CNN
F 3 "" H 1650 10300 50  0001 C CNN
	1    1650 10300
	0    1    1    0   
$EndComp
Wire Wire Line
	950  10950 950  11100
Wire Wire Line
	950  11100 1150 11100
Wire Wire Line
	4950 11100 4950 10950
Wire Wire Line
	4950 10950 4350 10950
Wire Wire Line
	1150 11300 950  11300
Wire Wire Line
	950  11300 950  11500
Wire Wire Line
	4950 11100 5050 11100
$Comp
L power:GND #PWR?
U 1 1 5B97642C
P 3200 11650
F 0 "#PWR?" H 3200 11400 50  0001 C CNN
F 1 "GND" H 3205 11477 50  0000 C CNN
F 2 "" H 3200 11650 50  0001 C CNN
F 3 "" H 3200 11650 50  0001 C CNN
	1    3200 11650
	1    0    0    -1  
$EndComp
Wire Wire Line
	3200 11650 3200 11500
Connection ~ 3200 11500
Wire Wire Line
	1750 11300 1650 11300
Text GLabel 1150 11200 0    50   Input ~ 0
SEN1
Text GLabel 1750 11200 0    50   Input ~ 0
SEN2
Text GLabel 2450 11200 0    50   Input ~ 0
SEN3
Text GLabel 3050 11200 0    50   Input ~ 0
SEN4
Text GLabel 3650 11200 0    50   Input ~ 0
SEN5
Text GLabel 4350 11200 0    50   Input ~ 0
SEN6
Text GLabel 5050 11200 0    50   Input ~ 0
SEN7
$Comp
L Connector:Conn_01x03_Male J?
U 1 1 5B98AE5B
P 5800 11200
F 0 "J?" H 6150 11000 50  0000 R CNN
F 1 "Conn_01x03_Male" H 6200 11450 50  0000 R CNN
F 2 "" H 5800 11200 50  0001 C CNN
F 3 "~" H 5800 11200 50  0001 C CNN
	1    5800 11200
	-1   0    0    1   
$EndComp
Wire Wire Line
	5600 11500 5600 11300
Wire Wire Line
	3200 11500 3500 11500
Text GLabel 5600 11200 0    50   Input ~ 0
SEN8
Wire Wire Line
	5600 11100 5600 10950
Wire Wire Line
	5600 10950 4950 10950
Connection ~ 4950 10950
Wire Wire Line
	5050 11300 4850 11300
Wire Wire Line
	4850 11300 4850 11500
Connection ~ 4850 11500
Wire Wire Line
	4850 11500 5600 11500
Wire Wire Line
	4350 11300 4150 11300
Wire Wire Line
	4150 11300 4150 11500
Connection ~ 4150 11500
Wire Wire Line
	4150 11500 4850 11500
Wire Wire Line
	4350 11100 4350 10950
Connection ~ 4350 10950
Wire Wire Line
	4350 10950 3650 10950
Wire Wire Line
	3650 11300 3500 11300
Wire Wire Line
	3500 11300 3500 11500
Connection ~ 3500 11500
Wire Wire Line
	3500 11500 4150 11500
Wire Wire Line
	3650 11100 3650 10950
Connection ~ 3650 10950
Wire Wire Line
	3650 10950 3050 10950
Wire Wire Line
	3050 11100 3050 10950
Connection ~ 3050 10950
Wire Wire Line
	3050 10950 2450 10950
Wire Wire Line
	3050 11300 2850 11300
Wire Wire Line
	2850 11300 2850 11500
Connection ~ 2850 11500
Wire Wire Line
	2850 11500 3200 11500
Wire Wire Line
	2450 11100 2450 10950
Connection ~ 2450 10950
Wire Wire Line
	2450 10950 1750 10950
Wire Wire Line
	2450 11300 2250 11300
Wire Wire Line
	2250 11300 2250 11500
Connection ~ 2250 11500
Wire Wire Line
	2250 11500 2850 11500
Wire Wire Line
	1750 11100 1750 10950
Connection ~ 1750 10950
Wire Wire Line
	1750 10950 1400 10950
Wire Wire Line
	1650 11300 1650 11500
Wire Wire Line
	950  11500 1650 11500
Connection ~ 1650 11500
Wire Wire Line
	1650 11500 2250 11500
$Comp
L Transistor_Array:ULN2003 U?
U 1 1 5BA16CCF
P 11100 1800
F 0 "U?" H 11100 2467 50  0000 C CNN
F 1 "ULN2003" H 11100 2376 50  0000 C CNN
F 2 "" H 11150 1250 50  0001 L CNN
F 3 "http://www.ti.com/lit/ds/symlink/uln2003a.pdf" H 11200 1600 50  0001 C CNN
	1    11100 1800
	1    0    0    -1  
$EndComp
Text GLabel 10700 1700 0    50   Input ~ 0
CM1C
Text GLabel 10700 1800 0    50   Input ~ 0
CM1A
Text GLabel 10700 1900 0    50   Input ~ 0
CM1B
Text GLabel 10700 2000 0    50   Input ~ 0
CM1D
$Comp
L Connector:Conn_01x05_Male STEP?
U 1 1 5BA17462
P 12250 2000
F 0 "STEP?" H 12356 2378 50  0000 C CNN
F 1 "Conn_01x05_Male" H 12200 2300 50  0000 C CNN
F 2 "" H 12250 2000 50  0001 C CNN
F 3 "~" H 12250 2000 50  0001 C CNN
	1    12250 2000
	-1   0    0    -1  
$EndComp
Wire Wire Line
	12050 1800 11500 1800
Wire Wire Line
	12050 1900 11500 1900
Wire Wire Line
	12050 2000 11750 2000
Wire Wire Line
	11750 2000 11750 1700
Wire Wire Line
	11750 1700 11500 1700
Wire Wire Line
	12050 2100 11650 2100
Wire Wire Line
	11650 2100 11650 2000
Wire Wire Line
	11650 2000 11500 2000
Wire Wire Line
	11500 1400 11800 1400
Wire Wire Line
	11800 2200 12050 2200
$Comp
L power:GND #PWR?
U 1 1 5BA66B0E
P 11100 2450
F 0 "#PWR?" H 11100 2200 50  0001 C CNN
F 1 "GND" H 11105 2277 50  0000 C CNN
F 2 "" H 11100 2450 50  0001 C CNN
F 3 "" H 11100 2450 50  0001 C CNN
	1    11100 2450
	1    0    0    -1  
$EndComp
Wire Wire Line
	11100 2450 11100 2400
$Comp
L Transistor_Array:ULN2003 U?
U 1 1 5BA74F76
P 11150 3450
F 0 "U?" H 11150 4117 50  0000 C CNN
F 1 "ULN2003" H 11150 4026 50  0000 C CNN
F 2 "" H 11200 2900 50  0001 L CNN
F 3 "http://www.ti.com/lit/ds/symlink/uln2003a.pdf" H 11250 3250 50  0001 C CNN
	1    11150 3450
	1    0    0    -1  
$EndComp
Text GLabel 10750 3350 0    50   Input ~ 0
CM2C
Text GLabel 10750 3450 0    50   Input ~ 0
CM2A
Text GLabel 10750 3550 0    50   Input ~ 0
CM2B
Text GLabel 10750 3650 0    50   Input ~ 0
CM2D
$Comp
L Connector:Conn_01x05_Male STEP?
U 1 1 5BA74F81
P 12450 3650
F 0 "STEP?" H 12556 4028 50  0000 C CNN
F 1 "Conn_01x05_Male" H 12400 3950 50  0000 C CNN
F 2 "" H 12450 3650 50  0001 C CNN
F 3 "~" H 12450 3650 50  0001 C CNN
	1    12450 3650
	-1   0    0    -1  
$EndComp
$Comp
L power:GND #PWR?
U 1 1 5BA74F92
P 11150 4100
F 0 "#PWR?" H 11150 3850 50  0001 C CNN
F 1 "GND" H 11155 3927 50  0000 C CNN
F 2 "" H 11150 4100 50  0001 C CNN
F 3 "" H 11150 4100 50  0001 C CNN
	1    11150 4100
	1    0    0    -1  
$EndComp
Wire Wire Line
	11150 4100 11150 4050
Text GLabel 10750 3250 0    50   Input ~ 0
TRIGG_3V3
$Comp
L Device:R R?
U 1 1 5BA9359C
P 11800 3250
F 0 "R?" V 11850 3400 50  0000 C CNN
F 1 "1k" V 11684 3250 50  0000 C CNN
F 2 "" V 11730 3250 50  0001 C CNN
F 3 "~" H 11800 3250 50  0001 C CNN
	1    11800 3250
	0    1    1    0   
$EndComp
Wire Wire Line
	11650 3250 11550 3250
Wire Wire Line
	12000 3250 11950 3250
Wire Wire Line
	12000 3250 12000 3850
Wire Wire Line
	12000 3850 12250 3850
Wire Wire Line
	12250 3750 11800 3750
Wire Wire Line
	11800 3750 11800 3650
Wire Wire Line
	11550 3650 11800 3650
Wire Wire Line
	12250 3650 11850 3650
Wire Wire Line
	11850 3650 11850 3350
Wire Wire Line
	11550 3350 11850 3350
Wire Wire Line
	12250 3550 11550 3550
Wire Wire Line
	12250 3450 11550 3450
$Comp
L Diode:1N47xxA D?
U 1 1 5BAFADE4
P 11800 1550
F 0 "D?" V 11754 1629 50  0000 L CNN
F 1 "1N4733A" V 11450 1300 50  0000 L CNN
F 2 "Diode_THT:D_DO-41_SOD81_P10.16mm_Horizontal" H 11800 1375 50  0001 C CNN
F 3 "https://www.vishay.com/docs/85816/1n4728a.pdf" H 11800 1550 50  0001 C CNN
	1    11800 1550
	0    1    1    0   
$EndComp
Wire Wire Line
	11800 1700 11800 2200
$Comp
L Diode:1N47xxA D?
U 1 1 5BAFAF7C
P 11800 2900
F 0 "D?" H 11754 2979 50  0000 L CNN
F 1 "1N4733A" H 11700 3100 50  0000 L CNN
F 2 "Diode_THT:D_DO-41_SOD81_P10.16mm_Horizontal" H 11800 2725 50  0001 C CNN
F 3 "https://www.vishay.com/docs/85816/1n4728a.pdf" H 11800 2900 50  0001 C CNN
	1    11800 2900
	1    0    0    -1  
$EndComp
Wire Wire Line
	11650 2900 11650 3050
Wire Wire Line
	11650 3050 11550 3050
Wire Wire Line
	11950 2900 12000 2900
Wire Wire Line
	12000 2900 12000 3250
Connection ~ 12000 3250
$Comp
L Connector:Conn_01x04_Male J?
U 1 1 5BB47B77
P 10850 4900
F 0 "J?" H 10823 4780 50  0000 R CNN
F 1 "SRV_SIG1" H 10823 4871 50  0000 R CNN
F 2 "" H 10850 4900 50  0001 C CNN
F 3 "~" H 10850 4900 50  0001 C CNN
	1    10850 4900
	-1   0    0    1   
$EndComp
Text GLabel 10650 4700 0    50   Input ~ 0
SRV1
Text GLabel 10650 4800 0    50   Input ~ 0
SRV2
Text GLabel 10650 4900 0    50   Input ~ 0
SRV3
Text GLabel 10650 5000 0    50   Input ~ 0
SRV4
$Comp
L Connector:Conn_01x04_Male J?
U 1 1 5BB775A9
P 13400 4800
F 0 "J?" H 13373 4773 50  0000 R CNN
F 1 "Conn_01x04_Male" H 13373 4682 50  0000 R CNN
F 2 "" H 13400 4800 50  0001 C CNN
F 3 "~" H 13400 4800 50  0001 C CNN
	1    13400 4800
	-1   0    0    -1  
$EndComp
Text GLabel 13200 4700 0    50   Input ~ 0
VM
Text GLabel 13200 4800 0    50   Input ~ 0
TRIGG
Text GLabel 11650 2950 0    50   Input ~ 0
TRIGG
Text GLabel 12450 4900 0    50   Input ~ 0
ECHO
$Comp
L Device:R R?
U 1 1 5BB7783A
P 12700 4900
F 0 "R?" V 12493 4900 50  0000 C CNN
F 1 "1k" V 12584 4900 50  0000 C CNN
F 2 "" V 12630 4900 50  0001 C CNN
F 3 "~" H 12700 4900 50  0001 C CNN
	1    12700 4900
	0    1    1    0   
$EndComp
$Comp
L power:GND #PWR?
U 1 1 5BB77958
P 13050 5150
F 0 "#PWR?" H 13050 4900 50  0001 C CNN
F 1 "GND" H 13055 4977 50  0000 C CNN
F 2 "" H 13050 5150 50  0001 C CNN
F 3 "" H 13050 5150 50  0001 C CNN
	1    13050 5150
	1    0    0    -1  
$EndComp
Wire Wire Line
	13050 5150 13050 5000
Wire Wire Line
	13050 5000 13200 5000
Wire Wire Line
	13200 4900 12850 4900
Wire Wire Line
	12450 4900 12550 4900
$Comp
L Connector_Generic:Conn_02x04_Odd_Even J?
U 1 1 5BBC7F86
P 11500 4750
F 0 "J?" H 11550 5067 50  0000 C CNN
F 1 "SRV_PWR1" H 11550 4976 50  0000 C CNN
F 2 "" H 11500 4750 50  0001 C CNN
F 3 "~" H 11500 4750 50  0001 C CNN
	1    11500 4750
	1    0    0    -1  
$EndComp
Wire Wire Line
	11300 4650 11300 4750
Connection ~ 11300 4750
Wire Wire Line
	11300 4750 11300 4850
Connection ~ 11300 4850
Wire Wire Line
	11300 4850 11300 4950
$Comp
L power:GND #PWR?
U 1 1 5BBC7F92
P 11300 5050
F 0 "#PWR?" H 11300 4800 50  0001 C CNN
F 1 "GND" H 11305 4877 50  0000 C CNN
F 2 "" H 11300 5050 50  0001 C CNN
F 3 "" H 11300 5050 50  0001 C CNN
	1    11300 5050
	1    0    0    -1  
$EndComp
Wire Wire Line
	11300 5050 11300 4950
Connection ~ 11300 4950
Text GLabel 11800 5100 2    50   Input ~ 0
VM
Wire Wire Line
	11800 5100 11800 4950
Connection ~ 11800 4750
Wire Wire Line
	11800 4750 11800 4650
Connection ~ 11800 4850
Wire Wire Line
	11800 4850 11800 4750
Connection ~ 11800 4950
Wire Wire Line
	11800 4950 11800 4850
Wire Notes Line
	14200 4350 14200 5400
Wire Notes Line
	14200 5400 10250 5400
Wire Notes Line
	10250 5400 10250 4350
Wire Notes Line
	10250 4350 14200 4350
Text GLabel 6100 10100 0    50   Input ~ 0
VDD
Wire Wire Line
	6150 10500 6500 10500
Wire Wire Line
	6850 10500 6500 10500
Connection ~ 6500 10500
Connection ~ 6500 10200
Connection ~ 5800 10200
$Comp
L Device:R R?
U 1 1 5BAE80DE
P 6850 11300
F 0 "R?" H 6920 11346 50  0000 L CNN
F 1 "R" H 6920 11255 50  0000 L CNN
F 2 "" V 6780 11300 50  0001 C CNN
F 3 "~" H 6850 11300 50  0001 C CNN
	1    6850 11300
	1    0    0    -1  
$EndComp
$Comp
L Device:R R?
U 1 1 5BAE815E
P 7350 11300
F 0 "R?" H 7420 11346 50  0000 L CNN
F 1 "R" H 7420 11255 50  0000 L CNN
F 2 "" V 7280 11300 50  0001 C CNN
F 3 "~" H 7350 11300 50  0001 C CNN
	1    7350 11300
	1    0    0    -1  
$EndComp
$Comp
L Device:R R?
U 1 1 5BAE81D8
P 7350 11800
F 0 "R?" H 7420 11846 50  0000 L CNN
F 1 "R" H 7420 11755 50  0000 L CNN
F 2 "" V 7280 11800 50  0001 C CNN
F 3 "~" H 7350 11800 50  0001 C CNN
	1    7350 11800
	1    0    0    -1  
$EndComp
$Comp
L Device:R R?
U 1 1 5BAE824C
P 6850 11800
F 0 "R?" H 6920 11846 50  0000 L CNN
F 1 "R" H 6920 11755 50  0000 L CNN
F 2 "" V 6780 11800 50  0001 C CNN
F 3 "~" H 6850 11800 50  0001 C CNN
	1    6850 11800
	1    0    0    -1  
$EndComp
$Comp
L power:+3.3V #PWR?
U 1 1 5BAE8345
P 6850 11050
F 0 "#PWR?" H 6850 10900 50  0001 C CNN
F 1 "+3.3V" H 6865 11223 50  0000 C CNN
F 2 "" H 6850 11050 50  0001 C CNN
F 3 "" H 6850 11050 50  0001 C CNN
	1    6850 11050
	1    0    0    -1  
$EndComp
$Comp
L power:+3.3V #PWR?
U 1 1 5BAE83B7
P 7350 12200
F 0 "#PWR?" H 7350 12050 50  0001 C CNN
F 1 "+3.3V" H 7365 12373 50  0000 C CNN
F 2 "" H 7350 12200 50  0001 C CNN
F 3 "" H 7350 12200 50  0001 C CNN
	1    7350 12200
	-1   0    0    1   
$EndComp
$Comp
L power:GND #PWR?
U 1 1 5BAE8501
P 6850 12100
F 0 "#PWR?" H 6850 11850 50  0001 C CNN
F 1 "GND" H 6855 11927 50  0000 C CNN
F 2 "" H 6850 12100 50  0001 C CNN
F 3 "" H 6850 12100 50  0001 C CNN
	1    6850 12100
	1    0    0    -1  
$EndComp
$Comp
L power:GND #PWR?
U 1 1 5BAE8573
P 7350 11000
F 0 "#PWR?" H 7350 10750 50  0001 C CNN
F 1 "GND" H 7355 10827 50  0000 C CNN
F 2 "" H 7350 11000 50  0001 C CNN
F 3 "" H 7350 11000 50  0001 C CNN
	1    7350 11000
	-1   0    0    1   
$EndComp
Wire Wire Line
	6850 11150 6850 11050
Wire Wire Line
	7350 11000 7350 11150
Wire Wire Line
	7350 11450 7350 11550
Wire Wire Line
	6850 11450 6850 11600
Wire Wire Line
	6850 11950 6850 12100
Wire Wire Line
	7350 11950 7350 12200
Text HLabel 6700 11600 0    50   Input ~ 0
BOOT0
Wire Wire Line
	6700 11600 6850 11600
Connection ~ 6850 11600
Wire Wire Line
	6850 11600 6850 11650
Text HLabel 7700 11550 2    50   Input ~ 0
BOOT1
Connection ~ 7350 11550
Wire Wire Line
	7350 11550 7350 11650
Wire Wire Line
	7350 11550 7700 11550
Text GLabel 7750 1750 1    50   Input ~ 0
VDDA
Wire Wire Line
	7750 1750 7750 2150
$Comp
L Device:L L?
U 1 1 5BB95231
P 8250 1200
F 0 "L?" V 8440 1200 50  0000 C CNN
F 1 "L" V 8349 1200 50  0000 C CNN
F 2 "" H 8250 1200 50  0001 C CNN
F 3 "~" H 8250 1200 50  0001 C CNN
	1    8250 1200
	0    -1   -1   0   
$EndComp
Text GLabel 8700 1050 1    50   Input ~ 0
VDDA
Connection ~ 8700 1200
Wire Wire Line
	8000 1200 8100 1200
Wire Wire Line
	8400 1200 8700 1200
Wire Wire Line
	8700 1050 8700 1200
$Comp
L power:+3.3V #PWR?
U 1 1 5BC13B32
P 1150 10300
F 0 "#PWR?" H 1150 10150 50  0001 C CNN
F 1 "+3.3V" V 1165 10428 50  0000 L CNN
F 2 "" H 1150 10300 50  0001 C CNN
F 3 "" H 1150 10300 50  0001 C CNN
	1    1150 10300
	0    -1   -1   0   
$EndComp
$Comp
L Jumper:Jumper_3_Bridged12 JP?
U 1 1 5BC6A5B5
P 1400 10300
F 0 "JP?" H 1400 10504 50  0000 C CNN
F 1 "Jumper_3_Bridged12" H 1400 10413 50  0000 C CNN
F 2 "" H 1400 10300 50  0001 C CNN
F 3 "~" H 1400 10300 50  0001 C CNN
	1    1400 10300
	1    0    0    -1  
$EndComp
Wire Wire Line
	1400 10450 1400 10950
Wire Bus Line
	5450 5500 5450 5650
Wire Wire Line
	8350 8550 9950 8550
Wire Bus Line
	8900 8550 8900 8800
Wire Bus Line
	5200 7850 5200 8250
Wire Bus Line
	10050 7550 10050 9000
Wire Bus Line
	5200 8350 5200 9150
Connection ~ 1400 10950
Wire Wire Line
	1400 10950 950  10950
$EndSCHEMATC
