EESchema Schematic File Version 4
LIBS:power
LIBS:74xx
LIBS:Tarjeta-cache
EELAYER 26 0
EELAYER END
$Descr A4 11693 8268
encoding utf-8
Sheet 1 4
Title "Tarjeta Onion-STM32-ICE40"
Date "2018-08-31"
Rev ""
Comp "Juli Acero "
Comment1 ""
Comment2 ""
Comment3 ""
Comment4 ""
$EndDescr
$Comp
L Connector:Conn_01x05_Male VM_SEL?
U 1 1 5B90FCE4
P 1750 4350
F 0 "VM_SEL?" H 1856 4728 50  0000 C CNN
F 1 "Conn_01x05_Male" H 1856 4637 50  0000 C CNN
F 2 "" H 1750 4350 50  0001 C CNN
F 3 "~" H 1750 4350 50  0001 C CNN
	1    1750 4350
	1    0    0    -1  
$EndComp
Text GLabel 2100 4550 2    50   Input ~ 0
VEXT
Text GLabel 2100 4350 2    50   Input ~ 0
VM
Wire Wire Line
	1950 4450 2050 4450
Wire Wire Line
	2050 4450 2050 4550
Wire Wire Line
	2050 4550 1950 4550
Wire Wire Line
	2100 4550 2050 4550
Connection ~ 2050 4550
Wire Wire Line
	2100 4350 1950 4350
$Comp
L power:GND #PWR?
U 1 1 5B90FCF3
P 2650 4250
F 0 "#PWR?" H 2650 4000 50  0001 C CNN
F 1 "GND" H 2655 4077 50  0000 C CNN
F 2 "" H 2650 4250 50  0001 C CNN
F 3 "" H 2650 4250 50  0001 C CNN
	1    2650 4250
	1    0    0    -1  
$EndComp
$Comp
L power:+5V #PWR?
U 1 1 5B90FCF9
P 2450 4350
F 0 "#PWR?" H 2450 4200 50  0001 C CNN
F 1 "+5V" H 2465 4523 50  0000 C CNN
F 2 "" H 2450 4350 50  0001 C CNN
F 3 "" H 2450 4350 50  0001 C CNN
	1    2450 4350
	1    0    0    -1  
$EndComp
Wire Wire Line
	1950 4250 2350 4250
Wire Wire Line
	2350 4250 2350 4350
Wire Wire Line
	2350 4350 2450 4350
Wire Wire Line
	2650 4150 2650 4250
Wire Wire Line
	1950 4150 2650 4150
$Comp
L Connector:Barrel_Jack_Switch J?
U 1 1 5B8DF2E7
P 3100 5200
F 0 "J?" H 3155 5517 50  0000 C CNN
F 1 "Barrel_Jack_Switch" H 3155 5426 50  0000 C CNN
F 2 "" H 3150 5160 50  0001 C CNN
F 3 "~" H 3150 5160 50  0001 C CNN
	1    3100 5200
	1    0    0    -1  
$EndComp
Wire Wire Line
	3400 5200 3500 5200
Wire Wire Line
	3500 5200 3500 5300
Wire Wire Line
	3500 5300 3400 5300
$Comp
L power:GND #PWR?
U 1 1 5B8DFA1C
P 3500 5450
F 0 "#PWR?" H 3500 5200 50  0001 C CNN
F 1 "GND" H 3505 5277 50  0000 C CNN
F 2 "" H 3500 5450 50  0001 C CNN
F 3 "" H 3500 5450 50  0001 C CNN
	1    3500 5450
	1    0    0    -1  
$EndComp
Wire Wire Line
	3500 5450 3500 5300
Connection ~ 3500 5300
$Comp
L power:+5V #PWR?
U 1 1 5B8E0151
P 3550 5050
F 0 "#PWR?" H 3550 4900 50  0001 C CNN
F 1 "+5V" H 3565 5223 50  0000 C CNN
F 2 "" H 3550 5050 50  0001 C CNN
F 3 "" H 3550 5050 50  0001 C CNN
	1    3550 5050
	1    0    0    -1  
$EndComp
Wire Wire Line
	3400 5100 3550 5100
Wire Wire Line
	3550 5100 3550 5050
$Comp
L Device:R R?
U 1 1 5B8E0AC0
P 2000 3350
F 0 "R?" V 1793 3350 50  0000 C CNN
F 1 "10k" V 1884 3350 50  0000 C CNN
F 2 "" V 1930 3350 50  0001 C CNN
F 3 "~" H 2000 3350 50  0001 C CNN
	1    2000 3350
	0    1    1    0   
$EndComp
$Comp
L Switch:SW_Push SW?
U 1 1 5B8E0BAD
P 2250 3600
F 0 "SW?" V 2204 3748 50  0000 L CNN
F 1 "SW_Push" V 2295 3748 50  0000 L CNN
F 2 "" H 2250 3800 50  0001 C CNN
F 3 "" H 2250 3800 50  0001 C CNN
	1    2250 3600
	0    1    1    0   
$EndComp
$Comp
L power:+3.3V #PWR?
U 1 1 5B8E0C41
P 1750 3350
F 0 "#PWR?" H 1750 3200 50  0001 C CNN
F 1 "+3.3V" V 1765 3478 50  0000 L CNN
F 2 "" H 1750 3350 50  0001 C CNN
F 3 "" H 1750 3350 50  0001 C CNN
	1    1750 3350
	0    -1   -1   0   
$EndComp
Wire Wire Line
	1750 3350 1850 3350
Wire Wire Line
	2150 3350 2250 3350
Wire Wire Line
	2250 3350 2250 3400
Wire Wire Line
	2250 3350 2250 3150
Connection ~ 2250 3350
$Comp
L power:GND #PWR?
U 1 1 5B8E289C
P 2250 3900
F 0 "#PWR?" H 2250 3650 50  0001 C CNN
F 1 "GND" H 2255 3727 50  0000 C CNN
F 2 "" H 2250 3900 50  0001 C CNN
F 3 "" H 2250 3900 50  0001 C CNN
	1    2250 3900
	1    0    0    -1  
$EndComp
Wire Wire Line
	2250 3900 2250 3800
$Comp
L Connector:USB_B_Micro J?
U 1 1 5B90C73D
P 8650 4300
AR Path="/5B8C83AA/5B90C73D" Ref="J?"  Part="1" 
AR Path="/5B90C73D" Ref="J?"  Part="1" 
F 0 "J?" H 8705 4767 50  0000 C CNN
F 1 "USB_B_Micro" H 8705 4676 50  0000 C CNN
F 2 "" H 8800 4250 50  0001 C CNN
F 3 "~" H 8800 4250 50  0001 C CNN
	1    8650 4300
	1    0    0    -1  
$EndComp
$Comp
L Regulator_Linear:AP1117-33 U?
U 1 1 5B90C744
P 9750 4100
AR Path="/5B8C83AA/5B90C744" Ref="U?"  Part="1" 
AR Path="/5B90C744" Ref="U?"  Part="1" 
F 0 "U?" H 9750 4342 50  0000 C CNN
F 1 "AP1117-33" H 9750 4251 50  0000 C CNN
F 2 "Package_TO_SOT_SMD:SOT-223-3_TabPin2" H 9750 4300 50  0001 C CNN
F 3 "http://www.diodes.com/datasheets/AP1117.pdf" H 9850 3850 50  0001 C CNN
	1    9750 4100
	1    0    0    -1  
$EndComp
Wire Wire Line
	8950 4300 8950 4400
Wire Wire Line
	9450 4100 9250 4100
Wire Wire Line
	8550 4700 8550 4850
Wire Wire Line
	8550 4850 8650 4850
Wire Wire Line
	8650 4850 8650 4700
$Comp
L power:GND #PWR?
U 1 1 5B90C750
P 8650 4850
AR Path="/5B8C83AA/5B90C750" Ref="#PWR?"  Part="1" 
AR Path="/5B90C750" Ref="#PWR?"  Part="1" 
F 0 "#PWR?" H 8650 4600 50  0001 C CNN
F 1 "GND" H 8655 4677 50  0000 C CNN
F 2 "" H 8650 4850 50  0001 C CNN
F 3 "" H 8650 4850 50  0001 C CNN
	1    8650 4850
	1    0    0    -1  
$EndComp
Connection ~ 8650 4850
NoConn ~ 8950 4500
$Comp
L Device:CP C?
U 1 1 5B90C758
P 9250 4300
AR Path="/5B8C83AA/5B90C758" Ref="C?"  Part="1" 
AR Path="/5B90C758" Ref="C?"  Part="1" 
F 0 "C?" H 9368 4346 50  0000 L CNN
F 1 "10uF" H 9368 4255 50  0000 L CNN
F 2 "" H 9288 4150 50  0001 C CNN
F 3 "~" H 9250 4300 50  0001 C CNN
	1    9250 4300
	1    0    0    -1  
$EndComp
$Comp
L Device:CP C?
U 1 1 5B90C75F
P 10300 4300
AR Path="/5B8C83AA/5B90C75F" Ref="C?"  Part="1" 
AR Path="/5B90C75F" Ref="C?"  Part="1" 
F 0 "C?" H 10418 4346 50  0000 L CNN
F 1 "100uF" H 10418 4255 50  0000 L CNN
F 2 "" H 10338 4150 50  0001 C CNN
F 3 "~" H 10300 4300 50  0001 C CNN
	1    10300 4300
	1    0    0    -1  
$EndComp
$Comp
L power:GND #PWR?
U 1 1 5B90C766
P 9250 4650
AR Path="/5B8C83AA/5B90C766" Ref="#PWR?"  Part="1" 
AR Path="/5B90C766" Ref="#PWR?"  Part="1" 
F 0 "#PWR?" H 9250 4400 50  0001 C CNN
F 1 "GND" H 9255 4477 50  0000 C CNN
F 2 "" H 9250 4650 50  0001 C CNN
F 3 "" H 9250 4650 50  0001 C CNN
	1    9250 4650
	1    0    0    -1  
$EndComp
$Comp
L power:GND #PWR?
U 1 1 5B90C76C
P 9750 4650
AR Path="/5B8C83AA/5B90C76C" Ref="#PWR?"  Part="1" 
AR Path="/5B90C76C" Ref="#PWR?"  Part="1" 
F 0 "#PWR?" H 9750 4400 50  0001 C CNN
F 1 "GND" H 9755 4477 50  0000 C CNN
F 2 "" H 9750 4650 50  0001 C CNN
F 3 "" H 9750 4650 50  0001 C CNN
	1    9750 4650
	1    0    0    -1  
$EndComp
$Comp
L power:GND #PWR?
U 1 1 5B90C772
P 10300 4600
AR Path="/5B8C83AA/5B90C772" Ref="#PWR?"  Part="1" 
AR Path="/5B90C772" Ref="#PWR?"  Part="1" 
F 0 "#PWR?" H 10300 4350 50  0001 C CNN
F 1 "GND" H 10305 4427 50  0000 C CNN
F 2 "" H 10300 4600 50  0001 C CNN
F 3 "" H 10300 4600 50  0001 C CNN
	1    10300 4600
	1    0    0    -1  
$EndComp
$Comp
L power:+3.3V #PWR?
U 1 1 5B90C778
P 10300 3950
AR Path="/5B8C83AA/5B90C778" Ref="#PWR?"  Part="1" 
AR Path="/5B90C778" Ref="#PWR?"  Part="1" 
F 0 "#PWR?" H 10300 3800 50  0001 C CNN
F 1 "+3.3V" H 10315 4123 50  0000 C CNN
F 2 "" H 10300 3950 50  0001 C CNN
F 3 "" H 10300 3950 50  0001 C CNN
	1    10300 3950
	1    0    0    -1  
$EndComp
$Comp
L power:+5V #PWR?
U 1 1 5B90C77E
P 9150 4000
AR Path="/5B8C83AA/5B90C77E" Ref="#PWR?"  Part="1" 
AR Path="/5B90C77E" Ref="#PWR?"  Part="1" 
F 0 "#PWR?" H 9150 3850 50  0001 C CNN
F 1 "+5V" H 9165 4173 50  0000 C CNN
F 2 "" H 9150 4000 50  0001 C CNN
F 3 "" H 9150 4000 50  0001 C CNN
	1    9150 4000
	1    0    0    -1  
$EndComp
Wire Wire Line
	9250 4150 9250 4100
Connection ~ 9250 4100
Wire Wire Line
	9250 4100 9150 4100
Wire Wire Line
	9150 4000 9150 4100
Connection ~ 9150 4100
Wire Wire Line
	9150 4100 8950 4100
Wire Wire Line
	10300 3950 10300 4100
Wire Wire Line
	10050 4100 10300 4100
Connection ~ 10300 4100
Wire Wire Line
	10300 4100 10300 4150
Wire Wire Line
	10300 4600 10300 4450
Wire Wire Line
	9750 4400 9750 4650
Wire Wire Line
	9250 4450 9250 4650
$Sheet
S 2900 1950 1350 2100
U 5B8C83AA
F0 "Onion" 50
F1 "Onion.sch" 50
F2 "JNSRT" I R 4250 2100 50 
F3 "JTMS" I R 4250 2200 50 
F4 "JTCK" I R 4250 2300 50 
F5 "JTDI" I R 4250 2400 50 
F6 "JTDO" I R 4250 2500 50 
F7 "JTRST" I R 4250 2600 50 
F8 "BOOT0" I R 4250 2700 50 
F9 "ONRx" I L 2900 2400 50 
F10 "ONTx" I L 2900 2550 50 
F11 "RST" I L 2900 2700 50 
F12 "SCL" I R 4250 3200 50 
F13 "SDA" I R 4250 3300 50 
F14 "G8_Rx" I R 4250 2900 50 
F15 "G8_Tx" I R 4250 3000 50 
F16 "RESET" I L 2900 3150 50 
F17 "SPI_MISO" I R 4250 3600 50 
F18 "SPI_MOSI" I R 4250 3700 50 
F19 "SPI_CLK" I R 4250 3800 50 
F20 "SPI_CS1" I R 4250 3900 50 
$EndSheet
Wire Wire Line
	2250 3150 2900 3150
$Sheet
S 5450 1950 1400 1250
U 5B887EC7
F0 "STM32F446" 60
F1 "STM32F446.sch" 60
F2 "FCM_D[15:0]" I R 6850 2150 50 
F3 "FCM_NBL0" I R 6850 2300 50 
F4 "FCM_NBL1" I R 6850 2450 50 
F5 "FCM_A[24:16]" I R 6850 2000 50 
F6 "FCM_NADV" I R 6850 2600 50 
F7 "FCM_CLK" I R 6850 2750 50 
F8 "FCM_NOE" I R 6850 2850 50 
F9 "FCM_NWE" I R 6850 2950 50 
F10 "FCM_NWAIT" I L 5450 2900 50 
F11 "FCM_NE1" I L 5450 3050 50 
F12 "JNRST" I L 5450 2100 50 
F13 "JTMS" I L 5450 2200 50 
F14 "JTCK" I L 5450 2300 50 
F15 "JTDI" I L 5450 2400 50 
F16 "JTRST" I L 5450 2600 50 
F17 "JTDO" I L 5450 2500 50 
F18 "BOOT1" I L 5450 3150 50 
F19 "BOOT0" I L 5450 2700 50 
$EndSheet
Wire Wire Line
	5450 2600 4250 2600
Wire Wire Line
	4250 2500 5450 2500
Wire Wire Line
	5450 2400 4250 2400
Wire Wire Line
	4250 2300 5450 2300
Wire Wire Line
	5450 2200 4250 2200
Wire Wire Line
	4250 2100 5450 2100
$Comp
L power:+3.3V #PWR?
U 1 1 5B93EBC4
P 6000 3750
F 0 "#PWR?" H 6000 3600 50  0001 C CNN
F 1 "+3.3V" H 6015 3923 50  0000 C CNN
F 2 "" H 6000 3750 50  0001 C CNN
F 3 "" H 6000 3750 50  0001 C CNN
	1    6000 3750
	1    0    0    -1  
$EndComp
$Comp
L Device:LED D?
U 1 1 5B93EC2B
P 6000 3900
F 0 "D?" V 6038 3783 50  0000 R CNN
F 1 "LED" V 5947 3783 50  0000 R CNN
F 2 "" H 6000 3900 50  0001 C CNN
F 3 "~" H 6000 3900 50  0001 C CNN
	1    6000 3900
	0    -1   -1   0   
$EndComp
$Comp
L Device:R R?
U 1 1 5B93ECF1
P 6000 4200
F 0 "R?" H 6070 4246 50  0000 L CNN
F 1 "1k" H 6070 4155 50  0000 L CNN
F 2 "" V 5930 4200 50  0001 C CNN
F 3 "~" H 6000 4200 50  0001 C CNN
	1    6000 4200
	1    0    0    -1  
$EndComp
$Comp
L power:GND #PWR?
U 1 1 5B93EEA8
P 6000 4350
F 0 "#PWR?" H 6000 4100 50  0001 C CNN
F 1 "GND" H 6005 4177 50  0000 C CNN
F 2 "" H 6000 4350 50  0001 C CNN
F 3 "" H 6000 4350 50  0001 C CNN
	1    6000 4350
	1    0    0    -1  
$EndComp
Wire Wire Line
	5450 2700 4250 2700
$Sheet
S 7650 1750 1750 1650
U 5B8D7824
F0 "ICE40" 50
F1 "ICE40.sch" 50
F2 "ICE_SPI_SCK" I L 7650 3150 50 
F3 "ICE_SPI_MOSI" I L 7650 3050 50 
F4 "ICE_SPI_SS" I L 7650 3250 50 
$EndSheet
$EndSCHEMATC
